\contentsline {section}{\numberline {1}Authors}{1}
\contentsline {section}{\numberline {2}Introduction}{1}
\contentsline {section}{\numberline {3}The team}{1}
\contentsline {section}{\numberline {4}Project Details}{1}
\contentsline {subsection}{\numberline {4.1}The project}{1}
\contentsline {section}{\numberline {5}User Stories}{2}
\contentsline {section}{\numberline {6}Concept}{2}
\contentsline {subsection}{\numberline {6.1}Stage 1}{2}
\contentsline {subsection}{\numberline {6.2}Stage 2}{2}
\contentsline {section}{\numberline {7}Bonus features}{2}
\contentsline {section}{\numberline {8}Further improvement}{2}
\contentsline {section}{\numberline {9}Choice we made}{2}
\contentsline {subsection}{\numberline {9.1}Frameworks}{2}
\contentsline {subsection}{\numberline {9.2}Other possible frameworks}{3}
\contentsline {subsection}{\numberline {9.3}Dependecies}{3}
\contentsline {section}{\numberline {10}Value Sensitive Design}{3}
\contentsline {section}{\numberline {11}Process}{3}
\contentsline {section}{\numberline {12}Feedback (individual)}{3}
\contentsline {section}{\numberline {13}References}{3}
